<?xml version="1.0" standalone="no"?>
<!DOCTYPE svg PUBLIC "-//W3C//DTD SVG 1.1//EN" "http://www.w3.org/Graphics/SVG/1.1/DTD/svg11.dtd" >
<svg xmlns="http://www.w3.org/2000/svg">
<metadata>Generated by IcoMoon</metadata>
<defs>
<font id="icomoon" horiz-adv-x="512">
<font-face units-per-em="512" ascent="480" descent="-32" />
<missing-glyph horiz-adv-x="512" />
<glyph unicode="&#x20;" d="" horiz-adv-x="256" />
<glyph unicode="&#xe600;" d="M30.615 421.504c-1.712 28.106 23.926 53.465 51.791 52.749 42.481 0 84.956 0.038 127.434 0 41.843-0.955 86.114-13.253 115.689-44.385 45.625-47.058 42.885-130.744-4.142-175.89-5.532-5.171-11.385-9.91-17.111-14.807 24.2-12.142 46.613-29.696 58.683-54.541 21.852-44.626 19.221-101.517-8.601-142.996-30.615-45.468-87.508-64.732-140.298-65.93-61.107-0.2-122.26 0-183.409-0.077-0.036 148.608 0.044 297.226-0.036 445.878v0zM136.668 383.803c-8.44-7.445-9.154-19.389-9.472-29.86-0.079-26.913 0.079-53.785 0-80.697 26.194 0.118 52.393-0.356 78.587 0.118 15.683 0.32 31.488 7.168 41.085 19.827 18.908 25.799 17.833 68.316-9.121 88.225-18.476 13.494-42.437 9.713-63.856 10.307-12.498-0.317-27.428 1.674-37.222-7.921v0zM139.497 189.918c-10.309-6.531-12.022-19.625-12.298-30.812-0.079-32.645 0.038-65.288 0.038-97.894 30.098 0.161 60.237-0.24 90.373 0.077 20.58 0.404 41.603 11.349 51.315 29.945 14.656 28.144 11.786 67.794-13.256 89.216-20.506 17.198-48.809 15.043-73.81 15.209-14.098-0.604-29.819 2.342-42.363-5.74v0zM417.822 84.946c26.719 8.246 57.078-12.951 58.512-40.87 2.78-24.55-17.011-48.743-41.748-50.391-24.404-3.115-48.622 16.341-50.729 40.832-3.207 22.269 12.063 45.084 33.966 50.43v0z" />
<glyph unicode="&#xe601;" d="M131.006 223.865c-11.546 0-20.905-9.36-20.905-20.905s9.359-20.892 20.905-20.892c11.536 0 20.894 9.346 20.894 20.892s-9.357 20.905-20.894 20.905zM382.702 223.865c-11.546 0-20.908-9.36-20.908-20.905s9.362-20.892 20.908-20.892 20.892 9.346 20.892 20.892-9.346 20.905-20.892 20.905zM131.003 264.688c-16.487-0.007-31.982-6.425-43.638-18.086-11.661-11.655-18.078-27.151-18.078-43.633 0-16.484 6.418-31.985 18.078-43.632 11.656-11.666 27.151-18.082 43.638-18.082 34.025 0 61.714 27.682 61.714 61.714 0 34.028-27.686 61.719-61.714 61.719zM131.003 160.159c-11.436 0.010-22.188 4.45-30.267 12.539s-12.531 18.826-12.531 30.262c0 11.443 4.45 22.183 12.531 30.262 8.082 8.087 18.832 12.539 30.267 12.539 23.598 0 42.8-19.202 42.8-42.8 0-23.606-19.197-42.8-42.8-42.8zM382.702 264.688c-16.476-0.007-31.977-6.425-43.632-18.086-11.663-11.655-18.074-27.151-18.074-43.633 0-16.484 6.41-31.985 18.074-43.632 11.656-11.666 27.156-18.082 43.632-18.082 34.025 0 61.724 27.682 61.724 61.714 0 34.028-27.692 61.719-61.724 61.719zM382.702 160.159c-11.433 0.010-22.18 4.45-30.262 12.539-8.079 8.089-12.531 18.826-12.531 30.262 0 11.443 4.45 22.183 12.531 30.262 8.082 8.087 18.829 12.539 30.262 12.539 23.601 0 42.803-19.202 42.803-42.8 0-23.606-19.192-42.8-42.803-42.8zM482.153 284.119c4.854 14.423 12.25 31.409 22.477 41.646h-84.337c-1.401 0.428-2.86 0.717-4.27 1.103-4.582 7.186-35.961 47.67-161.349 47.67-137.602 0-161.994-48.773-161.994-48.773h-87.964c11.223-11.223 19.021-30.536 23.795-45.712-16.218-21.504-25.951-48.146-25.951-77.094 0-70.825 57.618-128.438 128.446-128.438 39.257 0 74.414 17.741 97.997 45.594l29.161-40.829 25.17 42.416c23.565-28.767 59.361-47.181 99.369-47.181 70.825 0 128.448 57.613 128.448 128.438 0 30.763-10.901 59.016-28.997 81.159zM131.006 99.743c-56.919 0-103.225 46.298-103.225 103.216 0 56.921 46.305 103.229 103.225 103.229 56.914 0 103.23-46.308 103.23-103.229-0.007-56.919-46.318-103.216-103.23-103.216zM132.744 323.154c0 0 33.103 36.58 121.065 36.58l8.699-0.005c87.962 0 121.063-36.58 121.063-36.58s-94.057 15.68-125.406-100.16c-31.36 115.84-125.419 100.165-125.419 100.165zM382.702 99.743c-56.916 0-103.232 46.298-103.232 103.216 0 56.921 46.315 103.229 103.232 103.229 56.919 0 103.227-46.308 103.227-103.229-0.007-56.919-46.305-103.216-103.227-103.216z" />
<glyph unicode="&#xe602;" d="M296.020 280.951l-9.63 27.248-81.678 109.168 14.661 3.656 140.861-121.748 82.867 23.721c9.738 2.488 20.774 3.041 29.224 2.98-26.053 56.197-73.728 102.3-136.649 124.746-124.42 44.318-261.218-20.682-305.475-145.151-13.688-38.515-16.924-78.215-11.182-116.008l198.531 68.969 78.471 22.421zM481.058 304.459c-7.298-4.675-17.953-10.923-28.579-14.325l-83.079-23.672-55.411-177.921-14.387-4.705 11.719 135.899-6.564 28.206-77.821-22.231-205.761-48.422c16.348-79.147 72.368-148.118 154.075-177.235 124.449-44.337 261.159 20.702 305.459 145.087 19.064 53.601 17.831 109.521 0.348 159.321z" />
</font></defs></svg>